[0.1, 0.01, 3, 8, 9]
[[], [], [], [], [], [], [], []]
[{0: 5, 1: 0, 2: 0}, {0: 7, 1: 0, 2: 1}, {0: 5, 1: 0}, {1: 3, 2: 0}, {0: 0, 1: 4, 2: 0}, {0: 0, 1: 5, 2: 0}, {0: 0, 1: 0, 2: 5}, {0: 0, 1: 0, 2: 4}]
[17.0, 12.0, 10.0]
[5.0, 8.0, 5.0, 3.0, 4.0, 5.0, 5.0, 4.0]
{'t2': 1, 't3': 2, 't1': 0}
{0: 't1', 1: 't2', 2: 't3'}
{'a': 0, 'c': 2, 'b': 1, 'e': 4, 'd': 3, 'g': 6, 'f': 5, 'h': 7}
{0: 'a', 1: 'b', 2: 'c', 3: 'd', 4: 'e', 5: 'f', 6: 'g', 7: 'h'}
